Spriint 2/rod25deliveryFEITO/simulation/qsim/radar_eletronico.msim.vcd
$comment
	File created using the following command:
		vcd file radar_eletronico.msim.vcd -direction
$end
$date
	Sun Feb 20 20:39:35 2022
$end
$version
	ModelSim Version 10.1d
$end
$timescale
	1ps
$end
$scope module radar_eletronico_vlg_vec_tst $end
$var reg 1 ! clk $end
$var reg 1 " enable $end
$var reg 1 # pos_neg $end
$var reg 1 $ rst $end
$var reg 1 % rst_1 $end
$var reg 1 & store $end
$var reg 1 ' trigger $end
$var reg 1 ( windows $end
$var wire 1 ) led_blue $end
$var wire 1 * led_green $end
$var wire 1 + led_red $end
$var wire 1 , out_storeO $end
$var wire 1 - out_win $end
$var wire 1 . q_regt [3] $end
$var wire 1 / q_regt [2] $end
$var wire 1 0 q_regt [1] $end
$var wire 1 1 q_regt [0] $end
$var wire 1 2 q_state [2] $end
$var wire 1 3 q_state [1] $end
$var wire 1 4 q_state [0] $end
$var wire 1 5 saida_count [3] $end
$var wire 1 6 saida_count [2] $end
$var wire 1 7 saida_count [1] $end
$var wire 1 8 saida_count [0] $end
$var wire 1 9 sampler $end
$scope module i1 $end
$var wire 1 : gnd $end
$var wire 1 ; vcc $end
$var wire 1 < unknown $end
$var tri1 1 = devclrn $end
$var tri1 1 > devpor $end
$var tri1 1 ? devoe $end
$var wire 1 @ clk~combout $end
$var wire 1 A trigger~combout $end
$var wire 1 B clk~clkctrl_outclk $end
$var wire 1 C enable~combout $end
$var wire 1 D inst|b2v_int0|reg~2_combout $end
$var wire 1 E enable~clkctrl_outclk $end
$var wire 1 F rst~combout $end
$var wire 1 G inst4|current.rst_on~feeder_combout $end
$var wire 1 H inst4|current.windows_s~0_combout $end
$var wire 1 I inst4|current.rst_on~regout $end
$var wire 1 J inst2|count[3]~26_combout $end
$var wire 1 K pos_neg~combout $end
$var wire 1 L inst2|count[3]~25_combout $end
$var wire 1 M inst2|count[3]~25clkctrl_outclk $end
$var wire 1 N inst2|count[3]~1_combout $end
$var wire 1 O inst2|count[1]~28_combout $end
$var wire 1 P inst2|count[1]~9_combout $end
$var wire 1 Q inst2|count[0]~29_combout $end
$var wire 1 R inst2|count[0]~13_combout $end
$var wire 1 S inst2|LessThan0~2_combout $end
$var wire 1 T inst2|count[0]~15_combout $end
$var wire 1 U inst2|count[0]~_emulated_regout $end
$var wire 1 V inst2|count[0]~14_combout $end
$var wire 1 W inst2|count[1]~11_combout $end
$var wire 1 X inst2|count[1]~_emulated_regout $end
$var wire 1 Y inst2|count[1]~10_combout $end
$var wire 1 Z inst2|LessThan0~1_combout $end
$var wire 1 [ inst2|count[3]~3_combout $end
$var wire 1 \ inst2|count[3]~_emulated_regout $end
$var wire 1 ] inst2|count[3]~2_combout $end
$var wire 1 ^ inst2|LessThan0~0_combout $end
$var wire 1 _ inst2|get_q~0_combout $end
$var wire 1 ` inst2|q~combout $end
$var wire 1 a inst4|Selector3~0_combout $end
$var wire 1 b inst4|current.store_s~regout $end
$var wire 1 c inst4|nx_state~5_combout $end
$var wire 1 d inst4|current.windows_s~regout $end
$var wire 1 e inst4|current.wait4pulse_s~0_combout $end
$var wire 1 f inst4|current.wait4pulse_s~regout $end
$var wire 1 g inst4|Selector2~0_combout $end
$var wire 1 h inst4|current.reset_s~regout $end
$var wire 1 i inst4|nx_out~2_combout $end
$var wire 1 j inst4|reset_o~combout $end
$var wire 1 k inst4|reset_o~clkctrl_outclk $end
$var wire 1 l inst|b2v_inst|cnt~2_combout $end
$var wire 1 m inst|b2v_inst|q[0]~13_combout $end
$var wire 1 n inst|b2v_inst|q[0]~15_combout $end
$var wire 1 o windows~combout $end
$var wire 1 p inst|b2v_inst|inc_q~0_combout $end
$var wire 1 q inst|b2v_inst|q[0]~_emulated_regout $end
$var wire 1 r inst|b2v_inst|q[0]~14_combout $end
$var wire 1 s rst_1~combout $end
$var wire 1 t rst_1~clkctrl_outclk $end
$var wire 1 u inst|b2v_int0|q[0]~13_combout $end
$var wire 1 v inst|b2v_int0|q[0]~15_combout $end
$var wire 1 w store~combout $end
$var wire 1 x inst|b2v_int0|load_q~0_combout $end
$var wire 1 y inst|b2v_int0|q[0]~_emulated_regout $end
$var wire 1 z inst|b2v_int0|q[0]~14_combout $end
$var wire 1 { inst|b2v_int0|reg~1_combout $end
$var wire 1 | inst|b2v_inst|cnt~1_combout $end
$var wire 1 } inst|b2v_inst|q[1]~9_combout $end
$var wire 1 ~ inst|b2v_inst|cnt~0_combout $end
$var wire 1 !! inst|b2v_inst|q[2]~5_combout $end
$var wire 1 "! inst|b2v_inst|Add0~0_combout $end
$var wire 1 #! inst|b2v_inst|q[2]~7_combout $end
$var wire 1 $! inst|b2v_inst|q[2]~_emulated_regout $end
$var wire 1 %! inst|b2v_inst|q[2]~6_combout $end
$var wire 1 &! inst|b2v_inst|cnt~3_combout $end
$var wire 1 '! inst|b2v_inst|q[3]~1_combout $end
$var wire 1 (! inst|b2v_inst|Add0~1_combout $end
$var wire 1 )! inst|b2v_inst|q[3]~3_combout $end
$var wire 1 *! inst|b2v_inst|q[3]~_emulated_regout $end
$var wire 1 +! inst|b2v_inst|q[3]~2_combout $end
$var wire 1 ,! inst|b2v_inst|Equal0~0_combout $end
$var wire 1 -! inst|b2v_inst|q[1]~11_combout $end
$var wire 1 .! inst|b2v_inst|q[1]~_emulated_regout $end
$var wire 1 /! inst|b2v_inst|q[1]~10_combout $end
$var wire 1 0! inst|b2v_int0|q[1]~9_combout $end
$var wire 1 1! inst|b2v_int0|q[1]~11_combout $end
$var wire 1 2! inst|b2v_int0|q[1]~_emulated_regout $end
$var wire 1 3! inst|b2v_int0|q[1]~10_combout $end
$var wire 1 4! inst|b2v_inst2|gtout~0_combout $end
$var wire 1 5! inst|b2v_int0|reg~3_combout $end
$var wire 1 6! inst|b2v_int0|q[3]~1_combout $end
$var wire 1 7! inst|b2v_int0|q[3]~3_combout $end
$var wire 1 8! inst|b2v_int0|q[3]~_emulated_regout $end
$var wire 1 9! inst|b2v_int0|q[3]~2_combout $end
$var wire 1 :! inst|b2v_inst2|gtout~1_combout $end
$var wire 1 ;! inst|b2v_inst3|ltout~0_combout $end
$var wire 1 <! inst|b2v_inst5|lgc_out~combout $end
$var wire 1 =! inst|b2v_inst3|ltout~1_combout $end
$var wire 1 >! inst4|nx_out~0_combout $end
$var wire 1 ?! inst4|windows_o~combout $end
$var wire 1 @! inst4|nx_out~1_combout $end
$var wire 1 A! inst4|store_o~combout $end
$var wire 1 B! inst|b2v_int0|reg~0_combout $end
$var wire 1 C! inst|b2v_int0|q[2]~5_combout $end
$var wire 1 D! inst|b2v_int0|q[2]~7_combout $end
$var wire 1 E! inst|b2v_int0|q[2]~_emulated_regout $end
$var wire 1 F! inst|b2v_int0|q[2]~6_combout $end
$var wire 1 G! inst2|count[2]~27_combout $end
$var wire 1 H! inst2|count[2]~5_combout $end
$var wire 1 I! inst2|count[2]~7_combout $end
$var wire 1 J! inst2|count[2]~_emulated_regout $end
$var wire 1 K! inst2|count[2]~6_combout $end
$var wire 1 L! inst4|state [2] $end
$var wire 1 M! inst4|state [1] $end
$var wire 1 N! inst4|state [0] $end
$upscope $end
$upscope $end
$enddefinitions $end
#0
$dumpvars
1!
1"
1#
1$
1%
1&
0'
1(
0)
1*
0+
0,
0-
01
00
0/
0.
04
03
02
08
07
06
05
x9
0:
1;
x<
1=
1>
1?
1@
0A
1B
1C
0D
1E
1F
1G
1H
0I
0J
1K
1L
1M
0N
0O
0P
0Q
0R
1S
0T
0U
0V
0W
0X
0Y
1Z
0[
0\
0]
1^
1_
0`
0a
0b
1c
0d
1e
0f
0g
0h
0i
0j
0k
0l
xm
xn
1o
1p
0q
xr
1s
1t
0u
xv
1w
1x
0y
0z
0{
0|
x}
0~
x!!
x"!
x#!
0$!
x%!
0&!
x'!
x(!
x)!
0*!
x+!
x,!
x-!
0.!
x/!
00!
x1!
02!
03!
04!
05!
06!
x7!
08!
09!
0:!
1;!
0<!
1=!
0>!
0?!
0@!
0A!
0B!
0C!
xD!
0E!
0F!
0G!
0H!
0I!
0J!
0K!
0N!
0M!
zL!
$end
#10000
0!
0$
0%
0@
0F
0s
0t
0B
09
1G!
1O
0L
0H
0M
#20000
1!
1@
1B
19
xE!
x8!
x2!
x.!
x*!
x$!
xy
xq
xF!
x9!
x3!
xz
x;!
x4!
x=!
x:!
x/
x.
x0
x1
x<!
x*
x+
x)
#30000
0!
0@
0B
09
1I
1f
0c
1N!
0e
14
#40000
1!
1@
1B
19
#50000
0!
0@
0B
09
#60000
1'
1!
1A
1@
1B
19
1L
1M
1K!
1Y
1H!
1P
1I!
0^
0S
0Z
1W
16
17
0_
1T
0I!
1`
1g
1e
#70000
0!
0@
0B
09
0f
1h
0N!
0g
1M!
1i
1j
1k
04
13
0/!
0+!
0%!
0r
0'!
0!!
0}
0m
01!
0-!
0,!
0(!
0"!
07!
0D!
0v
1n
0)!
0#!
0.!
0*!
0$!
0q
#80000
0'
1!
0A
1@
1B
19
0L
0M
0E!
08!
02!
0y
0F!
09!
03!
0z
1;!
04!
0/
0.
00
01
1=!
0<!
0:!
1*
0)
0+
#90000
0!
0@
0B
09
1d
0h
1>!
0e
0M!
0i
12
1?!
0j
0k
03
1-
#100000
1!
1@
1B
19
1q
1X
1U
1r
0Y
1V
1-!
1v
0n
0T
07
18
#110000
0!
0@
0B
09
#120000
1!
1@
1B
19
1.!
1y
0q
0U
1/!
1z
0r
0V
11!
0v
1n
1Z
0W
1T
11
08
1I!
#130000
0!
0@
0B
09
#140000
1!
1@
1B
19
1J!
12!
0y
1q
0X
1U
0K!
13!
0z
1r
1Y
1V
0-!
1"!
1v
0n
0Z
0T
06
10
01
17
18
1#!
#150000
0!
0@
0B
09
#160000
1!
1@
1B
19
0.!
1$!
1y
0q
0U
0/!
1%!
1z
0r
0V
01!
0"!
1D!
0#!
0v
1n
1W
1T
11
08
1#!
#170000
0!
0@
0B
09
#180000
0#
1!
0K
1@
1B
19
1L
1M
1K!
0I!
16
0J!
1E!
02!
0y
1q
1F!
03!
0z
1r
1-!
1v
0n
1/
00
01
#190000
0!
0@
0B
09
#200000
1!
1@
1B
19
1.!
1y
0q
1/!
1z
0r
11!
0;!
0v
1n
11
0=!
1<!
0*
1)
#210000
0!
0@
0B
09
#220000
1'
1!
1A
1@
1B
19
0L
0M
12!
0y
1q
13!
0z
1r
0-!
1(!
1"!
1v
0n
10
01
1)!
0#!
#230000
0!
0@
0B
09
#240000
0'
1!
0A
1@
1B
19
1L
1M
0.!
1*!
0$!
1y
0q
0/!
1+!
0%!
1z
0r
01!
0(!
0"!
17!
0)!
0D!
1#!
14!
0v
1n
11
1)!
0#!
0<!
1:!
0)
1+
#250000
0!
0@
0B
09
#260000
1!
1@
1B
19
0E!
18!
02!
0y
1q
0F!
19!
03!
0z
1r
1;!
04!
1-!
1,!
1v
0n
0/
1.
00
01
0-!
0)!
#270000
0!
0@
0B
09
#280000
1!
1@
1B
19
0*!
1y
0q
0+!
1z
0r
07!
0,!
0v
1n
11
#290000
0!
0@
0B
09
#300000
1!
1@
1B
19
08!
0y
1q
09!
0z
1r
1=!
0:!
1-!
1v
0n
0.
01
1*
0+
#310000
0!
0@
0B
09
#320000
1!
1@
1B
19
1.!
1y
0q
1/!
1z
0r
11!
0v
1n
11
#330000
0!
0@
0B
09
#340000
1'
1!
1A
1@
1B
19
0L
0M
12!
0y
1q
13!
0z
1r
0-!
1"!
1v
0n
10
01
1#!
#350000
0!
0@
0B
09
#360000
0'
1!
0A
1@
1B
19
1L
1M
0.!
1$!
1y
0q
0/!
1%!
1z
0r
01!
0"!
1D!
0#!
0v
1n
11
1#!
#370000
0!
0@
0B
09
#380000
1!
1@
1B
19
1E!
02!
0y
1q
1F!
03!
0z
1r
1-!
1v
0n
1/
00
01
#390000
0!
0@
0B
09
#400000
1'
1!
1A
1@
1B
19
0L
0M
1.!
1y
0q
1/!
1z
0r
11!
0;!
0v
1n
11
0=!
1<!
0*
1)
#410000
0!
0@
0B
09
#420000
1!
1@
1B
19
12!
0y
1q
1X
1U
13!
0z
1r
0Y
1V
0-!
1(!
1"!
1v
0n
0T
10
01
07
18
1)!
0#!
#430000
0!
0@
0B
09
#440000
1!
1@
1B
19
0.!
1*!
0$!
1y
0q
0U
0/!
1+!
0%!
1z
0r
0V
01!
0(!
0"!
17!
0)!
0D!
1#!
14!
0v
1n
1Z
0W
1T
11
08
1)!
0#!
0<!
1:!
1I!
0)
1+
#450000
0!
0@
0B
09
#460000
1!
1@
1B
19
1J!
0E!
18!
02!
0y
1q
0X
1U
0K!
0F!
19!
03!
0z
1r
1Y
1V
1;!
04!
1-!
1,!
1v
0n
0Z
0T
06
0/
1.
00
01
17
18
0-!
0)!
#470000
0!
0@
0B
09
#480000
0'
1!
0A
1@
1B
19
1L
1M
1K!
0V
0I!
1W
1T
16
08
0J!
0*!
1y
0q
0U
0+!
1z
0r
07!
0,!
0v
1n
11
#490000
0!
0@
0B
09
#500000
1!
1@
1B
19
08!
0y
1q
09!
0z
1r
1=!
0:!
1-!
1v
0n
0.
01
1*
0+
#510000
0!
0@
0B
09
#520000
1'
1!
1A
1@
1B
19
0L
0M
1.!
1y
0q
1/!
1z
0r
11!
0v
1n
11
#530000
0!
0@
0B
09
#540000
1!
1@
1B
19
12!
0y
1q
1X
1U
13!
0z
1r
0Y
1V
0-!
1"!
1v
0n
0T
10
01
07
18
1#!
#550000
0!
0@
0B
09
#560000
1!
1@
1B
19
0.!
1$!
1y
0q
0U
0/!
1%!
1z
0r
0V
01!
0"!
1D!
0#!
0v
1n
1Z
0W
1T
11
08
1#!
1I!
#570000
0!
0@
0B
09
#580000
1!
1@
1B
19
1J!
1E!
02!
0y
1q
0X
1U
0K!
1F!
03!
0z
1r
1Y
1V
1-!
1v
0n
0Z
0T
06
1/
00
01
17
18
#590000
0!
0@
0B
09
#600000
1!
1@
1B
19
1.!
1y
0q
0U
1/!
1z
0r
0V
11!
0;!
0v
1n
1W
1T
11
08
0=!
1<!
0*
1)
#610000
0!
0@
0B
09
#620000
1!
1@
1B
19
12!
0y
1q
1X
1U
13!
0z
1r
0Y
1V
0-!
1(!
1"!
1v
0n
0T
10
01
07
18
1)!
0#!
#630000
0!
0@
0B
09
#640000
1!
1@
1B
19
0.!
1*!
0$!
1y
0q
0U
0/!
1+!
0%!
1z
0r
0V
01!
0(!
0"!
17!
0)!
0D!
1#!
14!
0v
1n
1^
1Z
0W
1T
1S
11
08
1)!
0#!
0<!
1:!
1_
1W
0T
0`
0)
1+
1e
1a
#650000
0!
0@
0B
09
1b
0d
1N!
1M!
1@!
1c
0>!
0a
02
1A!
0?!
14
13
1,
0-
#660000
1!
1@
1B
19
0E!
18!
02!
0y
1q
0F!
19!
03!
0z
1r
1;!
04!
1-!
1,!
1v
0n
0/
1.
00
01
0-!
0)!
#670000
0!
0@
0B
09
0b
1f
0M!
0@!
0c
0e
0A!
03
0,
#680000
1!
1@
1B
19
0*!
1y
0q
0+!
1z
0r
07!
0,!
0v
1n
11
#690000
0!
0@
0B
09
#700000
1!
1@
1B
19
08!
0y
1q
09!
0z
1r
1=!
0:!
1-!
1v
0n
0.
01
1*
0+
#710000
0!
0@
0B
09
#720000
1!
1@
1B
19
1.!
1y
0q
1/!
1z
0r
11!
0v
1n
11
#730000
0!
0@
0B
09
#740000
1!
1@
1B
19
12!
0y
1q
13!
0z
1r
0-!
1"!
1v
0n
10
01
1#!
#750000
0!
0@
0B
09
#760000
1!
1@
1B
19
0.!
1$!
1y
0q
0/!
1%!
1z
0r
01!
0"!
1D!
0#!
0v
1n
11
1#!
#770000
0!
0@
0B
09
#780000
1!
1@
1B
19
1E!
02!
0y
1q
1F!
03!
0z
1r
1-!
1v
0n
1/
00
01
#790000
0!
0@
0B
09
#800000
1!
1@
1B
19
1.!
1y
0q
1/!
1z
0r
11!
0;!
0v
1n
11
0=!
1<!
0*
1)
#810000
0!
0@
0B
09
#820000
1!
1@
1B
19
12!
0y
1q
13!
0z
1r
0-!
1(!
1"!
1v
0n
10
01
1)!
0#!
#830000
0!
0@
0B
09
#840000
1!
1@
1B
19
0.!
1*!
0$!
1y
0q
0/!
1+!
0%!
1z
0r
01!
0(!
0"!
17!
0)!
0D!
1#!
14!
0v
1n
11
1)!
0#!
0<!
1:!
0)
1+
#850000
0!
0@
0B
09
#860000
1!
1@
1B
19
0E!
18!
02!
0y
1q
0F!
19!
03!
0z
1r
1;!
04!
1-!
1,!
1v
0n
0/
1.
00
01
0-!
0)!
#870000
0!
0@
0B
09
#880000
1!
1@
1B
19
0*!
1y
0q
0+!
1z
0r
07!
0,!
0v
1n
11
#890000
0!
0@
0B
09
#900000
1!
1@
1B
19
08!
0y
1q
09!
0z
1r
1=!
0:!
1-!
1v
0n
0.
01
1*
0+
#910000
0!
0@
0B
09
#920000
1!
1@
1B
19
1.!
1y
0q
1/!
1z
0r
11!
0v
1n
11
#930000
0!
0@
0B
09
#940000
1!
1@
1B
19
12!
0y
1q
13!
0z
1r
0-!
1"!
1v
0n
10
01
1#!
#950000
0!
0@
0B
09
#960000
1!
1@
1B
19
0.!
1$!
1y
0q
0/!
1%!
1z
0r
01!
0"!
1D!
0#!
0v
1n
11
1#!
#970000
0!
0@
0B
09
#980000
1!
1@
1B
19
1E!
02!
0y
1q
1F!
03!
0z
1r
1-!
1v
0n
1/
00
01
#990000
0!
0@
0B
09
