Spriint 2/rod25deliveryFEITO/arquivos para compilação final/arq 24/simulation/qsim/dsf_timer.msim.vcd
$comment
	File created using the following command:
		vcd file dsf_timer.msim.vcd -direction
$end
$date
	Sat Feb 12 19:58:23 2022
$end
$version
	ModelSim Version 10.1d
$end
$timescale
	1ps
$end
$scope module dsf_timer_vlg_vec_tst $end
$var reg 1 ! areset $end
$var reg 1 " clk $end
$var reg 4 # data [3:0] $end
$var reg 1 $ enable $end
$var reg 1 % pos_neg $end
$var reg 1 & trigger $end
$var wire 1 ' count [3] $end
$var wire 1 ( count [2] $end
$var wire 1 ) count [1] $end
$var wire 1 * count [0] $end
$var wire 1 + q $end
$var wire 1 , sampler $end
$scope module i1 $end
$var wire 1 - gnd $end
$var wire 1 . vcc $end
$var wire 1 / unknown $end
$var tri1 1 0 devclrn $end
$var tri1 1 1 devpor $end
$var tri1 1 2 devoe $end
$var wire 1 3 count[2]~reg0_emulated_regout $end
$var wire 1 4 count[2]~11_combout $end
$var wire 1 5 clk~combout $end
$var wire 1 6 clk~clkctrl_outclk $end
$var wire 1 7 enable~combout $end
$var wire 1 8 areset~combout $end
$var wire 1 9 count[2]~28_combout $end
$var wire 1 : trigger~combout $end
$var wire 1 ; pos_neg~combout $end
$var wire 1 < count[3]~25_combout $end
$var wire 1 = count[3]~25clkctrl_outclk $end
$var wire 1 > count[2]~9_combout $end
$var wire 1 ? count[2]~10_combout $end
$var wire 1 @ count[0]~26_combout $end
$var wire 1 A count[0]~1_combout $end
$var wire 1 B count[0]~3_combout $end
$var wire 1 C count[0]~reg0_emulated_regout $end
$var wire 1 D count[0]~2_combout $end
$var wire 1 E count[3]~29_combout $end
$var wire 1 F count[3]~13_combout $end
$var wire 1 G count[1]~27_combout $end
$var wire 1 H count[1]~5_combout $end
$var wire 1 I count[1]~7_combout $end
$var wire 1 J count[1]~reg0_emulated_regout $end
$var wire 1 K count[1]~6_combout $end
$var wire 1 L Add0~0_combout $end
$var wire 1 M count[3]~15_combout $end
$var wire 1 N count[3]~reg0_emulated_regout $end
$var wire 1 O count[3]~14_combout $end
$var wire 1 P LessThan0~0_combout $end
$var wire 1 Q get_q~0_combout $end
$var wire 1 R q$latch~combout $end
$var wire 1 S data~combout [3] $end
$var wire 1 T data~combout [2] $end
$var wire 1 U data~combout [1] $end
$var wire 1 V data~combout [0] $end
$upscope $end
$upscope $end
$enddefinitions $end
#0
$dumpvars
1!
0"
b1000 #
1$
1%
0&
0*
0)
0(
0'
0+
x,
0-
1.
x/
10
11
12
03
04
05
06
17
18
09
0:
1;
1<
1=
0>
0?
0@
0A
0B
0C
0D
0E
0F
0G
0H
0I
0J
0K
1L
0M
0N
0O
0P
1Q
0R
0V
0U
0T
1S
$end
#10000
1"
15
16
0,
#20000
0!
0"
08
05
06
1,
1E
0<
0=
#30000
1&
1"
1:
15
16
0,
1<
1=
1O
1F
1P
1M
14
1'
0Q
1I
1B
1R
1+
#40000
0&
0"
0:
05
06
1,
0<
0=
#50000
1"
15
16
0,
1N
1J
1C
13
0O
1K
1D
1?
04
0L
0B
0'
1)
1*
1(
14
#60000
0"
05
06
1,
#70000
1"
15
16
0,
0C
0D
0I
1B
0*
#80000
0"
05
06
1,
#90000
1"
15
16
0,
0J
1C
0K
1D
0B
0)
1*
#100000
0"
05
06
1,
#110000
1&
1"
1:
15
16
0,
1<
1=
1O
0D
0?
0M
04
1L
1I
1B
1'
0*
0(
1M
14
0N
03
0C
#120000
0&
0"
0:
05
06
1,
0<
0=
#130000
1"
15
16
0,
1N
1J
1C
13
0O
1K
1D
1?
04
0L
0B
0'
1)
1*
1(
14
#140000
0"
05
06
1,
#150000
1"
15
16
0,
0C
0D
0I
1B
0*
#160000
0"
05
06
1,
#170000
1"
15
16
0,
0J
1C
0K
1D
0B
0)
1*
#180000
0%
1&
0"
0;
1:
05
06
1,
#190000
0&
1"
0:
15
16
0,
1<
1=
1O
0D
0?
0M
04
1L
1I
1B
1'
0*
0(
1M
14
0N
03
0C
#200000
1&
0"
1:
05
06
1,
0<
0=
#210000
1"
15
16
0,
1N
1J
1C
13
0O
1K
1D
1?
04
0L
0B
0'
1)
1*
1(
14
#220000
0"
05
06
1,
#230000
1"
15
16
0,
0C
0D
0I
1B
0*
#240000
0"
05
06
1,
#250000
1"
15
16
0,
0J
1C
0K
1D
0B
0)
1*
#260000
0"
05
06
1,
#270000
0&
1"
0:
15
16
0,
1<
1=
1O
0D
0?
0M
04
1L
1I
1B
1'
0*
0(
1M
14
0N
03
0C
#280000
1&
0"
1:
05
06
1,
0<
0=
#290000
1"
15
16
0,
1N
1J
1C
13
0O
1K
1D
1?
04
0L
0B
0'
1)
1*
1(
14
#300000
0"
05
06
1,
#310000
1"
15
16
0,
0C
0D
0I
1B
0*
#320000
0"
05
06
1,
#330000
1"
15
16
0,
0J
1C
0K
1D
0B
0)
1*
#340000
0"
05
06
1,
#350000
1"
15
16
0,
0C
0D
1L
1I
1B
0*
04
#360000
0"
05
06
1,
#370000
1"
15
16
0,
1J
1C
03
1K
1D
0?
0L
0B
1)
1*
0(
#380000
0"
05
06
1,
#390000
1"
15
16
0,
0C
0D
0I
1B
0*
#400000
0"
05
06
1,
#410000
1"
15
16
0,
0J
1C
0K
1D
0B
0)
1*
#420000
0"
05
06
1,
#430000
1"
15
16
0,
0C
0D
0P
1L
1I
1B
0*
1Q
0I
0B
0R
0+
#440000
0"
05
06
1,
#450000
1"
15
16
0,
#460000
0"
05
06
1,
#470000
1"
15
16
0,
#480000
0"
05
06
1,
#490000
1"
15
16
0,
#500000
0"
05
06
1,
#510000
1"
15
16
0,
#520000
0"
05
06
1,
#530000
1"
15
16
0,
#540000
0"
05
06
1,
#550000
1"
15
16
0,
#560000
0"
05
06
1,
#570000
1"
15
16
0,
#580000
0"
05
06
1,
#590000
1"
15
16
0,
#600000
0"
05
06
1,
#610000
1"
15
16
0,
#620000
0"
05
06
1,
#630000
1"
15
16
0,
#640000
0"
05
06
1,
#650000
1"
15
16
0,
#660000
0"
05
06
1,
#670000
1"
15
16
0,
#680000
0"
05
06
1,
#690000
1"
15
16
0,
#700000
0"
05
06
1,
#710000
1"
15
16
0,
#720000
0"
05
06
1,
#730000
1"
15
16
0,
#740000
0"
05
06
1,
#750000
1"
15
16
0,
#760000
0"
05
06
1,
#770000
1"
15
16
0,
#780000
0"
05
06
1,
#790000
1"
15
16
0,
#800000
0"
05
06
1,
#810000
1"
15
16
0,
#820000
0"
05
06
1,
#830000
1"
15
16
0,
#840000
0"
05
06
1,
#850000
1"
15
16
0,
#860000
0"
05
06
1,
#870000
1"
15
16
0,
#880000
0"
05
06
1,
#890000
1"
15
16
0,
#900000
0"
05
06
1,
#910000
1"
15
16
0,
#920000
0"
05
06
1,
#930000
1"
15
16
0,
#940000
0"
05
06
1,
#950000
1"
15
16
0,
#960000
0"
05
06
1,
#970000
1"
15
16
0,
#980000
0"
05
06
1,
#990000
1"
15
16
0,
