Spriint 2/rod25deliveryFEITO/arquivos para compilação final/arq 23/simulation/qsim/rlc_microservice.msim.vcd
$comment
	File created using the following command:
		vcd file rlc_microservice.msim.vcd -direction
$end
$date
	Thu Feb 10 17:07:52 2022
$end
$version
	ModelSim Version 10.1d
$end
$timescale
	1ps
$end
$scope module rlc_microservice_vlg_vec_tst $end
$var reg 1 ! areset $end
$var reg 1 " clk $end
$var reg 1 # enable $end
$var reg 1 $ pulse $end
$var wire 1 % reset_o $end
$var wire 1 & state [2] $end
$var wire 1 ' state [1] $end
$var wire 1 ( state [0] $end
$var wire 1 ) store_o $end
$var wire 1 * windows_o $end
$var wire 1 + sampler $end
$scope module i1 $end
$var wire 1 , gnd $end
$var wire 1 - vcc $end
$var wire 1 . unknown $end
$var tri1 1 / devclrn $end
$var tri1 1 0 devpor $end
$var tri1 1 1 devoe $end
$var wire 1 2 clk~combout $end
$var wire 1 3 clk~clkctrl_outclk $end
$var wire 1 4 enable~combout $end
$var wire 1 5 enable~clkctrl_outclk $end
$var wire 1 6 areset~combout $end
$var wire 1 7 current.rst_on~feeder_combout $end
$var wire 1 8 current.windows_s~0_combout $end
$var wire 1 9 current.rst_on~regout $end
$var wire 1 : pulse~combout $end
$var wire 1 ; current.wait4pulse_s~0_combout $end
$var wire 1 < current.windows_s~regout $end
$var wire 1 = Selector3~0_combout $end
$var wire 1 > current.store_s~regout $end
$var wire 1 ? nx_state~5_combout $end
$var wire 1 @ current.wait4pulse_s~regout $end
$var wire 1 A Selector2~0_combout $end
$var wire 1 B current.reset_s~regout $end
$var wire 1 C nx_out~0_combout $end
$var wire 1 D reset_o$latch~combout $end
$var wire 1 E nx_out~1_combout $end
$var wire 1 F store_o$latch~combout $end
$var wire 1 G nx_out~2_combout $end
$var wire 1 H windows_o$latch~combout $end
$var wire 1 I state~0_combout $end
$var wire 1 J state~1_combout $end
$upscope $end
$upscope $end
$enddefinitions $end
#0
$dumpvars
0!
0"
1#
0$
0%
0(
0'
0&
0)
0*
x+
0,
1-
x.
1/
10
11
02
03
14
15
06
17
08
09
0:
1;
0<
0=
0>
1?
0@
0A
0B
0C
0D
0E
0F
0G
0H
0I
0J
$end
#10000
1"
1!
12
16
13
0+
18
#20000
1$
0"
0!
1:
02
06
03
1+
08
#30000
1"
12
13
0+
#40000
0"
02
03
1+
19
1@
0?
1I
1A
1(
#50000
1"
12
13
0+
#60000
0$
0"
0:
02
03
1+
0A
0;
0@
1B
0I
1;
1J
1C
1D
0(
1'
1%
#70000
1"
12
13
0+
#80000
0"
02
03
1+
1<
0B
1G
1=
0J
0C
1&
1H
0D
0'
1*
0%
#90000
1"
12
13
0+
#100000
0"
02
03
1+
0<
1>
0G
0=
1J
1I
1E
1?
0&
0H
1F
1'
1(
0*
1)
#110000
1"
12
13
0+
#120000
0"
02
03
1+
0>
1@
0J
0E
0?
0;
0F
0'
0)
#130000
1"
12
13
0+
#140000
0"
02
03
1+
#150000
1"
12
13
0+
#160000
0"
02
03
1+
#170000
1"
12
13
0+
#180000
0"
02
03
1+
#190000
1"
12
13
0+
#200000
1$
0"
1:
02
03
1+
1A
1;
#210000
1"
12
13
0+
#220000
0"
02
03
1+
0@
1B
0I
0A
1J
1C
1D
0(
1'
1%
#230000
1"
12
13
0+
#240000
0"
02
03
1+
1<
0B
1G
0;
0J
0C
1&
1H
0D
0'
1*
0%
#250000
1"
12
13
0+
#260000
0$
0"
0:
02
03
1+
1=
1;
#270000
1"
12
13
0+
#280000
0"
02
03
1+
0<
1>
0G
0=
1J
1I
1E
1?
0&
0H
1F
1'
1(
0*
1)
#290000
1"
12
13
0+
#300000
0"
02
03
1+
0>
1@
0J
0E
0?
0;
0F
0'
0)
#310000
1"
12
13
0+
#320000
0"
02
03
1+
#330000
1"
12
13
0+
#340000
0"
02
03
1+
#350000
1"
12
13
0+
#360000
0"
02
03
1+
#370000
1"
12
13
0+
#380000
0"
02
03
1+
#390000
1"
12
13
0+
#400000
0"
02
03
1+
#410000
1"
12
13
0+
#420000
0"
02
03
1+
#430000
1"
12
13
0+
#440000
0"
02
03
1+
#450000
1"
12
13
0+
#460000
0"
02
03
1+
#470000
1"
12
13
0+
#480000
0"
02
03
1+
#490000
1"
12
13
0+
#500000
0"
02
03
1+
#510000
1"
12
13
0+
#520000
0"
02
03
1+
#530000
1"
12
13
0+
#540000
0"
02
03
1+
#550000
1"
12
13
0+
#560000
0"
02
03
1+
#570000
1"
12
13
0+
#580000
0"
02
03
1+
#590000
1"
12
13
0+
#600000
0"
02
03
1+
#610000
1"
12
13
0+
#620000
0"
02
03
1+
#630000
1"
12
13
0+
#640000
0"
02
03
1+
#650000
1"
12
13
0+
#660000
0"
02
03
1+
#670000
1"
12
13
0+
#680000
0"
02
03
1+
#690000
1"
12
13
0+
#700000
0"
02
03
1+
#710000
1"
12
13
0+
#720000
0"
02
03
1+
#730000
1"
12
13
0+
#740000
0"
02
03
1+
#750000
1"
12
13
0+
#760000
0"
02
03
1+
#770000
1"
12
13
0+
#780000
0"
02
03
1+
#790000
1"
12
13
0+
#800000
0"
02
03
1+
#810000
1"
12
13
0+
#820000
0"
02
03
1+
#830000
1"
12
13
0+
#840000
0"
02
03
1+
#850000
1"
12
13
0+
#860000
0"
02
03
1+
#870000
1"
12
13
0+
#880000
0"
02
03
1+
#890000
1"
12
13
0+
#900000
0"
02
03
1+
#910000
1"
12
13
0+
#920000
0"
02
03
1+
#930000
1"
12
13
0+
#940000
0"
02
03
1+
#950000
1"
12
13
0+
#960000
0"
02
03
1+
#970000
1"
12
13
0+
#980000
0"
02
03
1+
#990000
1"
12
13
0+
