Spriint 2/rod25deliveryFEITO/arquivos para compilação final/arq 22/simulation/qsim/schematic.msim.vcd
$comment
	File created using the following command:
		vcd file schematic.msim.vcd -direction
$end
$date
	Wed Feb 09 15:00:31 2022
$end
$version
	ModelSim Version 10.1d
$end
$timescale
	1ps
$end
$scope module schematic_vlg_vec_tst $end
$var reg 1 ! clk $end
$var reg 1 " enable $end
$var reg 1 # reset $end
$var reg 1 $ rst_on $end
$var reg 1 % store $end
$var reg 1 & windows $end
$var wire 1 ' led_blue $end
$var wire 1 ( led_green $end
$var wire 1 ) led_red $end
$var wire 1 * out_reg [3] $end
$var wire 1 + out_reg [2] $end
$var wire 1 , out_reg [1] $end
$var wire 1 - out_reg [0] $end
$var wire 1 . sampler $end
$scope module i1 $end
$var wire 1 / gnd $end
$var wire 1 0 vcc $end
$var wire 1 1 unknown $end
$var tri1 1 2 devclrn $end
$var tri1 1 3 devpor $end
$var tri1 1 4 devoe $end
$var wire 1 5 clk~combout $end
$var wire 1 6 clk~clkctrl_outclk $end
$var wire 1 7 reset~combout $end
$var wire 1 8 reset~clkctrl_outclk $end
$var wire 1 9 enable~combout $end
$var wire 1 : b2v_inst|cnt~3_combout $end
$var wire 1 ; b2v_inst|q[2]~5_combout $end
$var wire 1 < windows~combout $end
$var wire 1 = b2v_inst|inc_q~0_combout $end
$var wire 1 > b2v_inst|cnt~1_combout $end
$var wire 1 ? b2v_inst|q[1]~9_combout $end
$var wire 1 @ b2v_inst|cnt~2_combout $end
$var wire 1 A b2v_inst|q[0]~13_combout $end
$var wire 1 B b2v_inst|q[0]~15_combout $end
$var wire 1 C b2v_inst|q[0]~_emulated_regout $end
$var wire 1 D b2v_inst|q[0]~14_combout $end
$var wire 1 E b2v_inst|Equal0~0_combout $end
$var wire 1 F b2v_inst|q[1]~11_combout $end
$var wire 1 G b2v_inst|q[1]~_emulated_regout $end
$var wire 1 H b2v_inst|q[1]~10_combout $end
$var wire 1 I b2v_inst|Add0~1_combout $end
$var wire 1 J b2v_inst|q[2]~7_combout $end
$var wire 1 K b2v_inst|q[2]~_emulated_regout $end
$var wire 1 L b2v_inst|q[2]~6_combout $end
$var wire 1 M b2v_inst|Add0~0_combout $end
$var wire 1 N b2v_inst|q[3]~3_combout $end
$var wire 1 O b2v_inst|q[3]~_emulated_regout $end
$var wire 1 P b2v_inst|cnt~0_combout $end
$var wire 1 Q b2v_inst|q[3]~1_combout $end
$var wire 1 R b2v_inst|q[3]~2_combout $end
$var wire 1 S rst_on~combout $end
$var wire 1 T rst_on~clkctrl_outclk $end
$var wire 1 U b2v_int0|reg~0_combout $end
$var wire 1 V b2v_int0|q[3]~1_combout $end
$var wire 1 W b2v_int0|q[3]~3_combout $end
$var wire 1 X store~combout $end
$var wire 1 Y b2v_int0|load_q~0_combout $end
$var wire 1 Z b2v_int0|q[3]~_emulated_regout $end
$var wire 1 [ b2v_int0|q[3]~2_combout $end
$var wire 1 \ b2v_inst2|gtout~0_combout $end
$var wire 1 ] b2v_int0|reg~1_combout $end
$var wire 1 ^ b2v_int0|q[1]~9_combout $end
$var wire 1 _ b2v_int0|q[1]~11_combout $end
$var wire 1 ` b2v_int0|q[1]~_emulated_regout $end
$var wire 1 a b2v_int0|q[1]~10_combout $end
$var wire 1 b b2v_int0|reg~2_combout $end
$var wire 1 c b2v_int0|q[0]~13_combout $end
$var wire 1 d b2v_int0|q[0]~15_combout $end
$var wire 1 e b2v_int0|q[0]~_emulated_regout $end
$var wire 1 f b2v_int0|q[0]~14_combout $end
$var wire 1 g b2v_inst3|ltout~0_combout $end
$var wire 1 h b2v_inst3|ltout~1_combout $end
$var wire 1 i b2v_inst5|lgc_out~combout $end
$var wire 1 j b2v_int0|reg~3_combout $end
$var wire 1 k b2v_int0|q[2]~5_combout $end
$var wire 1 l b2v_int0|q[2]~7_combout $end
$var wire 1 m b2v_int0|q[2]~_emulated_regout $end
$var wire 1 n b2v_int0|q[2]~6_combout $end
$upscope $end
$upscope $end
$enddefinitions $end
#0
$dumpvars
0!
1"
1#
1$
1%
1&
0'
1(
0)
0-
0,
0+
0*
x.
0/
10
x1
12
13
14
05
06
17
18
19
0:
0;
1<
1=
0>
0?
0@
0A
1B
0C
0D
0E
0F
0G
0H
0I
0J
0K
0L
0M
0N
0O
0P
0Q
0R
1S
1T
0U
0V
0W
1X
1Y
0Z
0[
0\
0]
0^
0_
0`
0a
0b
0c
0d
0e
0f
1g
1h
0i
0j
0k
0l
0m
0n
$end
#10000
1!
0#
0$
15
07
0S
0T
08
16
0.
1C
1D
1d
1F
0B
#20000
0!
05
06
1.
#30000
1!
15
16
0.
1e
1G
0C
1f
1H
0D
1_
0d
1B
1-
#40000
0!
05
06
1.
#50000
1!
15
16
0.
0e
1`
1C
0f
1a
1D
1d
1I
0F
0B
0-
1,
1J
#60000
0!
05
06
1.
#70000
1!
15
16
0.
1e
1K
0G
0C
1f
1L
0H
0D
1l
0J
0_
0I
0d
1B
1-
1J
#80000
0!
05
06
1.
#90000
1!
15
16
0.
1m
0e
0`
1C
1n
0f
0a
1D
1d
1F
0B
1+
0-
0,
#100000
0!
05
06
1.
#110000
1!
15
16
0.
1e
1G
0C
1f
1H
0D
0g
1_
0d
1B
1-
1i
0h
1'
0(
#120000
0!
05
06
1.
#130000
1!
15
16
0.
0e
1`
1C
0f
1a
1D
1d
1M
1I
0F
0B
0-
1,
1N
0J
#140000
0!
05
06
1.
#150000
1!
15
16
0.
1e
1O
0K
0G
0C
1f
1R
0L
0H
0D
1W
0N
0l
0M
1J
0_
0I
0d
1B
1-
1N
0J
#160000
0!
05
06
1.
#170000
1!
15
16
0.
0m
0e
0`
1Z
1C
0n
0f
0a
1[
1D
1g
0i
1\
1d
1F
1E
0B
0+
0-
0,
1*
0N
0F
0'
1)
#180000
0!
05
06
1.
#190000
1!
15
16
0.
1e
0O
0C
1f
0R
0D
0W
1N
0E
0d
1F
1B
1-
0N
0F
#200000
0!
05
06
1.
#210000
1!
15
16
0.
0e
0Z
1C
0f
0[
1D
1h
0\
1d
1F
0B
0-
0*
1(
0)
#220000
0!
05
06
1.
#230000
1!
15
16
0.
1e
1G
0C
1f
1H
0D
1_
0d
1B
1-
#240000
0!
05
06
1.
#250000
1!
15
16
0.
0e
1`
1C
0f
1a
1D
1d
1I
0F
0B
0-
1,
1J
#260000
0!
05
06
1.
#270000
1!
15
16
0.
1e
1K
0G
0C
1f
1L
0H
0D
1l
0J
0_
0I
0d
1B
1-
1J
#280000
0!
05
06
1.
#290000
1!
15
16
0.
1m
0e
0`
1C
1n
0f
0a
1D
1d
1F
0B
1+
0-
0,
#300000
0!
05
06
1.
#310000
1!
15
16
0.
1e
1G
0C
1f
1H
0D
0g
1_
0d
1B
1-
1i
0h
1'
0(
#320000
0!
05
06
1.
#330000
1!
15
16
0.
0e
1`
1C
0f
1a
1D
1d
1M
1I
0F
0B
0-
1,
1N
0J
#340000
0!
05
06
1.
#350000
1!
15
16
0.
1e
1O
0K
0G
0C
1f
1R
0L
0H
0D
1W
0N
0l
0M
1J
0_
0I
0d
1B
1-
1N
0J
#360000
0!
05
06
1.
#370000
1!
15
16
0.
0m
0e
0`
1Z
1C
0n
0f
0a
1[
1D
1g
0i
1\
1d
1F
1E
0B
0+
0-
0,
1*
0N
0F
0'
1)
#380000
0!
05
06
1.
#390000
1!
15
16
0.
1e
0O
0C
1f
0R
0D
0W
1N
0E
0d
1F
1B
1-
0N
0F
#400000
0!
05
06
1.
#410000
1!
15
16
0.
0e
0Z
1C
0f
0[
1D
1h
0\
1d
1F
0B
0-
0*
1(
0)
#420000
0!
05
06
1.
#430000
1!
15
16
0.
1e
1G
0C
1f
1H
0D
1_
0d
1B
1-
#440000
0!
05
06
1.
#450000
1!
15
16
0.
0e
1`
1C
0f
1a
1D
1d
1I
0F
0B
0-
1,
1J
#460000
0!
05
06
1.
#470000
1!
15
16
0.
1e
1K
0G
0C
1f
1L
0H
0D
1l
0J
0_
0I
0d
1B
1-
1J
#480000
0!
05
06
1.
#490000
1!
15
16
0.
1m
0e
0`
1C
1n
0f
0a
1D
1d
1F
0B
1+
0-
0,
#500000
0!
05
06
1.
#510000
1!
15
16
0.
1e
1G
0C
1f
1H
0D
0g
1_
0d
1B
1-
1i
0h
1'
0(
#520000
0!
05
06
1.
#530000
1!
15
16
0.
0e
1`
1C
0f
1a
1D
1d
1M
1I
0F
0B
0-
1,
1N
0J
#540000
0!
05
06
1.
#550000
1!
15
16
0.
1e
1O
0K
0G
0C
1f
1R
0L
0H
0D
1W
0N
0l
0M
1J
0_
0I
0d
1B
1-
1N
0J
#560000
0!
05
06
1.
#570000
1!
15
16
0.
0m
0e
0`
1Z
1C
0n
0f
0a
1[
1D
1g
0i
1\
1d
1F
1E
0B
0+
0-
0,
1*
0N
0F
0'
1)
#580000
0!
05
06
1.
#590000
1!
15
16
0.
1e
0O
0C
1f
0R
0D
0W
1N
0E
0d
1F
1B
1-
0N
0F
#600000
0!
05
06
1.
#610000
1!
15
16
0.
0e
0Z
1C
0f
0[
1D
1h
0\
1d
1F
0B
0-
0*
1(
0)
#620000
0!
05
06
1.
#630000
1!
15
16
0.
1e
1G
0C
1f
1H
0D
1_
0d
1B
1-
#640000
0!
05
06
1.
#650000
1!
15
16
0.
0e
1`
1C
0f
1a
1D
1d
1I
0F
0B
0-
1,
1J
#660000
0!
05
06
1.
#670000
1!
15
16
0.
1e
1K
0G
0C
1f
1L
0H
0D
1l
0J
0_
0I
0d
1B
1-
1J
#680000
0!
05
06
1.
#690000
1!
15
16
0.
1m
0e
0`
1C
1n
0f
0a
1D
1d
1F
0B
1+
0-
0,
#700000
0!
05
06
1.
#710000
1!
15
16
0.
1e
1G
0C
1f
1H
0D
0g
1_
0d
1B
1-
1i
0h
1'
0(
#720000
0!
05
06
1.
#730000
1!
15
16
0.
0e
1`
1C
0f
1a
1D
1d
1M
1I
0F
0B
0-
1,
1N
0J
#740000
0!
05
06
1.
#750000
1!
15
16
0.
1e
1O
0K
0G
0C
1f
1R
0L
0H
0D
1W
0N
0l
0M
1J
0_
0I
0d
1B
1-
1N
0J
#760000
0!
05
06
1.
#770000
1!
15
16
0.
0m
0e
0`
1Z
1C
0n
0f
0a
1[
1D
1g
0i
1\
1d
1F
1E
0B
0+
0-
0,
1*
0N
0F
0'
1)
#780000
0!
05
06
1.
#790000
1!
15
16
0.
1e
0O
0C
1f
0R
0D
0W
1N
0E
0d
1F
1B
1-
0N
0F
#800000
0!
05
06
1.
#810000
1!
15
16
0.
0e
0Z
1C
0f
0[
1D
1h
0\
1d
1F
0B
0-
0*
1(
0)
#820000
0!
05
06
1.
#830000
1!
15
16
0.
1e
1G
0C
1f
1H
0D
1_
0d
1B
1-
#840000
0!
05
06
1.
#850000
1!
15
16
0.
0e
1`
1C
0f
1a
1D
1d
1I
0F
0B
0-
1,
1J
#860000
0!
05
06
1.
#870000
1!
15
16
0.
1e
1K
0G
0C
1f
1L
0H
0D
1l
0J
0_
0I
0d
1B
1-
1J
#880000
0!
05
06
1.
#890000
1!
15
16
0.
1m
0e
0`
1C
1n
0f
0a
1D
1d
1F
0B
1+
0-
0,
#900000
0!
05
06
1.
#910000
1!
15
16
0.
1e
1G
0C
1f
1H
0D
0g
1_
0d
1B
1-
1i
0h
1'
0(
#920000
0!
05
06
1.
#930000
1!
15
16
0.
0e
1`
1C
0f
1a
1D
1d
1M
1I
0F
0B
0-
1,
1N
0J
#940000
0!
05
06
1.
#950000
1!
15
16
0.
1e
1O
0K
0G
0C
1f
1R
0L
0H
0D
1W
0N
0l
0M
1J
0_
0I
0d
1B
1-
1N
0J
#960000
0!
05
06
1.
#970000
1!
15
16
0.
0m
0e
0`
1Z
1C
0n
0f
0a
1[
1D
1g
0i
1\
1d
1F
1E
0B
0+
0-
0,
1*
0N
0F
0'
1)
#980000
0!
05
06
1.
#990000
1!
15
16
0.
1e
0O
0C
1f
0R
0D
0W
1N
0E
0d
1F
1B
1-
0N
0F
