Spriint 2/Delivery 22/Delivery 22/simulation/qsim/schematic.msim.vcd
$comment
	File created using the following command:
		vcd file schematic.msim.vcd -direction
$end
$date
	Tue Feb 08 04:18:54 2022
$end
$version
	ModelSim Version 10.1d
$end
$timescale
	1ps
$end
$scope module schematic_vlg_vec_tst $end
$var reg 1 ! clk $end
$var reg 1 " enable $end
$var reg 1 # reset $end
$var reg 1 $ rst_on $end
$var reg 1 % store $end
$var reg 1 & windows $end
$var wire 1 ' led_blue $end
$var wire 1 ( led_green $end
$var wire 1 ) led_red $end
$var wire 1 * sampler $end
$scope module i1 $end
$var wire 1 + gnd $end
$var wire 1 , vcc $end
$var wire 1 - unknown $end
$var tri1 1 . devclrn $end
$var tri1 1 / devpor $end
$var tri1 1 0 devoe $end
$var wire 1 1 clk~clkctrl_outclk $end
$var wire 1 2 enable~combout $end
$var wire 1 3 b2v_inst1|reg~2_combout $end
$var wire 1 4 reset~combout $end
$var wire 1 5 reset~clkctrl_outclk $end
$var wire 1 6 b2v_inst|cnt~2_combout $end
$var wire 1 7 b2v_inst|q[1]~9_combout $end
$var wire 1 8 b2v_inst|cnt~1_combout $end
$var wire 1 9 b2v_inst|q[2]~5_combout $end
$var wire 1 : b2v_inst|cnt~3_combout $end
$var wire 1 ; b2v_inst|q[0]~13_combout $end
$var wire 1 < b2v_inst|q[0]~15_combout $end
$var wire 1 = windows~combout $end
$var wire 1 > b2v_inst|inc_q~0_combout $end
$var wire 1 ? b2v_inst|q[0]~_emulated_regout $end
$var wire 1 @ b2v_inst|q[0]~14_combout $end
$var wire 1 A b2v_inst|Add0~1_combout $end
$var wire 1 B b2v_inst|q[2]~7_combout $end
$var wire 1 C b2v_inst|q[2]~_emulated_regout $end
$var wire 1 D b2v_inst|q[2]~6_combout $end
$var wire 1 E b2v_inst|Add0~0_combout $end
$var wire 1 F b2v_inst|q[3]~3_combout $end
$var wire 1 G b2v_inst|q[3]~_emulated_regout $end
$var wire 1 H b2v_inst|cnt~0_combout $end
$var wire 1 I b2v_inst|q[3]~1_combout $end
$var wire 1 J b2v_inst|q[3]~2_combout $end
$var wire 1 K b2v_inst|Equal0~0_combout $end
$var wire 1 L b2v_inst|q[1]~11_combout $end
$var wire 1 M b2v_inst|q[1]~_emulated_regout $end
$var wire 1 N b2v_inst|q[1]~10_combout $end
$var wire 1 O rst_on~combout $end
$var wire 1 P rst_on~clkctrl_outclk $end
$var wire 1 Q b2v_inst1|q[1]~9_combout $end
$var wire 1 R b2v_inst1|q[1]~11_combout $end
$var wire 1 S store~combout $end
$var wire 1 T b2v_inst1|load_q~0_combout $end
$var wire 1 U b2v_inst1|q[1]~_emulated_regout $end
$var wire 1 V b2v_inst1|q[1]~10_combout $end
$var wire 1 W b2v_inst1|reg~0_combout $end
$var wire 1 X b2v_inst1|q[3]~1_combout $end
$var wire 1 Y b2v_inst1|q[3]~3_combout $end
$var wire 1 Z b2v_inst1|q[3]~_emulated_regout $end
$var wire 1 [ b2v_inst1|q[3]~2_combout $end
$var wire 1 \ b2v_inst1|reg~1_combout $end
$var wire 1 ] b2v_inst1|q[2]~5_combout $end
$var wire 1 ^ b2v_inst1|q[2]~7_combout $end
$var wire 1 _ b2v_inst1|q[2]~_emulated_regout $end
$var wire 1 ` b2v_inst1|q[2]~6_combout $end
$var wire 1 a b2v_inst2|gtout~0_combout $end
$var wire 1 b b2v_inst1|reg~3_combout $end
$var wire 1 c b2v_inst1|q[0]~13_combout $end
$var wire 1 d b2v_inst1|q[0]~15_combout $end
$var wire 1 e b2v_inst1|q[0]~_emulated_regout $end
$var wire 1 f b2v_inst1|q[0]~14_combout $end
$var wire 1 g clk~combout $end
$var wire 1 h b2v_inst3|ltout~0_combout $end
$var wire 1 i b2v_inst3|ltout~1_combout $end
$var wire 1 j SYNTHESIZED_WIRE_18~combout $end
$upscope $end
$upscope $end
$enddefinitions $end
#0
$dumpvars
0!
1"
1#
1$
0%
1&
0'
0(
0)
x*
0+
1,
x-
1.
1/
10
01
12
03
14
15
06
07
08
09
0:
0;
1<
1=
1>
0?
0@
0A
0B
0C
0D
0E
0F
0G
0H
0I
0J
0K
0L
0M
0N
1O
1P
0Q
0R
0S
0T
0U
0V
0W
0X
0Y
0Z
0[
0\
0]
0^
0_
0`
0a
0b
0c
0d
0e
0f
0g
0h
0i
0j
$end
#10000
1!
0#
0$
1g
04
0O
0P
05
11
0*
1h
1j
1i
1'
1(
1?
1@
1d
1L
0<
#20000
0!
0g
01
1*
0h
0j
0i
0'
0(
#30000
1!
1g
11
0*
1h
1j
1i
1'
1(
1M
0?
1N
0@
1R
0d
1<
#40000
0!
0g
01
1*
0h
0j
0i
0'
0(
#50000
1!
1g
11
0*
1h
1j
1i
1'
1(
1?
1@
1d
0L
1A
0<
1B
#60000
1%
0!
1S
0g
01
1*
1T
0h
0j
0i
0'
0(
#70000
1!
1g
11
0*
1h
1j
1i
1'
1(
1e
1U
0M
1C
0?
1f
1V
0N
1D
0@
0R
0A
1^
0B
0d
1<
1B
#80000
0!
0g
01
1*
0h
0j
0i
0'
0(
#90000
1!
1g
11
0*
1h
1j
1i
1'
1(
0e
1_
0U
1?
0f
1`
0V
1@
1d
1L
0<
#100000
0!
0g
01
1*
0h
0j
0i
0'
0(
#110000
1!
1g
11
0*
1h
1j
1i
1'
1(
1e
1M
0?
1f
1N
0@
1R
0d
1<
#120000
0%
0!
0S
0g
01
1*
0T
0h
0j
0i
0'
0(
#130000
1!
1g
11
0*
1h
1j
1i
1'
1(
1?
1@
1d
0L
1E
1A
0<
1F
0B
#140000
0!
0g
01
1*
0h
0j
0i
0'
0(
#150000
1!
1g
11
0*
1h
1j
1i
1'
1(
0M
1G
0C
0?
0N
1J
0D
0@
0R
0E
0A
1Y
0F
0^
1B
0d
1<
1F
0B
#160000
0!
0g
01
1*
0h
0j
0i
0'
0(
#170000
1!
1g
11
0*
1h
1j
1i
1'
1(
1?
1@
1d
1L
1K
0<
0L
0F
#180000
1%
0!
1S
0g
01
1*
1T
0h
0j
0i
0'
0(
#190000
1!
1g
11
0*
1h
1j
1i
1'
1(
0_
1Z
0G
0?
0`
1[
0J
0@
1a
0j
0i
0Y
0K
1F
0d
1L
1<
1j
0L
0F
1)
0'
0(
1'
#200000
0!
0g
01
1*
0h
#210000
1!
1g
11
0*
1h
0e
0Z
1?
0f
0[
1@
1i
0a
1d
1L
0<
1(
0)
#220000
0!
0g
01
1*
0h
0j
0i
0'
0(
#230000
1!
1g
11
0*
1h
1j
1i
1'
1(
1e
1M
0?
1f
1N
0@
1R
0d
1<
#240000
0%
0!
0S
0g
01
1*
0T
0h
0j
0i
0'
0(
#250000
1!
1g
11
0*
1h
1j
1i
1'
1(
1?
1@
1d
0L
1A
0<
1B
#260000
0!
0g
01
1*
0h
0j
0i
0'
0(
#270000
1!
1g
11
0*
1h
1j
1i
1'
1(
0M
1C
0?
0N
1D
0@
0R
0A
1^
0B
0d
1<
1B
#280000
0!
0g
01
1*
0h
0j
0i
0'
0(
#290000
1!
1g
11
0*
1h
1j
1i
1'
1(
1?
1@
1d
1L
0<
#300000
1%
0!
1S
0g
01
1*
1T
0h
0j
0i
0'
0(
#310000
1!
1g
11
0*
1h
1j
1i
1'
1(
1_
1M
0?
1`
1N
0@
1R
0d
1<
#320000
0!
0g
01
1*
0h
0j
0i
0'
0(
#330000
1!
1g
11
0*
1h
1j
1i
1'
1(
0e
1U
1?
0f
1V
1@
1a
1d
0L
1E
1A
0<
1F
0B
1)
#340000
0!
0g
01
1*
0h
0i
0(
#350000
1!
1g
11
0*
1h
1i
1(
1e
0M
1G
0C
0?
1f
0N
1J
0D
0@
0h
0R
0E
0A
1Y
0F
0^
1B
0d
1<
0i
1F
0B
0(
#360000
0%
0!
0S
0g
01
1*
0T
#370000
1!
1g
11
0*
1?
1@
1d
1L
1K
0<
0L
0F
#380000
0!
0g
01
1*
#390000
1!
1g
11
0*
0G
0?
0J
0@
0Y
0K
1F
0d
1L
1<
0L
0F
#400000
0!
0g
01
1*
#410000
1!
1g
11
0*
1?
1@
1d
1L
0<
#420000
1%
0!
1S
0g
01
1*
1T
#430000
1!
1g
11
0*
0_
0U
1M
0?
0`
0V
1N
0@
1h
0a
1R
0d
1<
1i
0)
1(
#440000
0!
0g
01
1*
0h
0j
0i
0'
0(
#450000
1!
1g
11
0*
1h
1j
1i
1'
1(
0e
1U
1?
0f
1V
1@
1d
0L
1A
0<
1B
#460000
0!
0g
01
1*
0h
0j
0i
0'
0(
#470000
1!
1g
11
0*
1h
1j
1i
1'
1(
1e
0M
1C
0?
1f
0N
1D
0@
0R
0A
1^
0B
0d
1<
1B
#480000
0%
0!
0S
0g
01
1*
0T
0h
0j
0i
0'
0(
#490000
1!
1g
11
0*
1h
1j
1i
1'
1(
1?
1@
1d
1L
0<
#500000
0!
0g
01
1*
0h
0j
0i
0'
0(
#510000
1!
1g
11
0*
1h
1j
1i
1'
1(
1M
0?
1N
0@
1R
0d
1<
#520000
0!
0g
01
1*
0h
0j
0i
0'
0(
#530000
1!
1g
11
0*
1h
1j
1i
1'
1(
1?
1@
1d
0L
1E
1A
0<
1F
0B
#540000
1%
0!
1S
0g
01
1*
1T
0h
0j
0i
0'
0(
#550000
1!
1g
11
0*
1h
1j
1i
1'
1(
1_
0M
1G
0C
0?
1`
0N
1J
0D
0@
0h
1a
0R
0E
0A
1Y
0F
0^
1B
0d
1<
0i
1F
0B
1)
0(
#560000
0!
0g
01
1*
#570000
1!
1g
11
0*
0e
0_
1Z
0U
1?
0f
0`
1[
0V
1@
1h
1d
1L
1K
0<
0L
0F
#580000
0!
0g
01
1*
0h
#590000
1!
1g
11
0*
1h
1e
0G
0?
1f
0J
0@
0Y
0K
1F
0d
1L
1<
0L
0F
#600000
0%
0!
0S
0g
01
1*
0T
0h
#610000
1!
1g
11
0*
1h
1?
1@
1d
1L
0<
#620000
0!
0g
01
1*
0h
#630000
1!
1g
11
0*
1h
1M
0?
1N
0@
1R
0d
1<
#640000
0!
0g
01
1*
0h
#650000
1!
1g
11
0*
1h
1?
1@
1d
0L
1A
0<
1B
#660000
1%
0!
1S
0g
01
1*
1T
0h
#670000
1!
1g
11
0*
1h
0Z
1U
0M
1C
0?
0[
1V
0N
1D
0@
1i
0a
0R
0A
1^
0B
0d
1<
1B
1(
0)
#680000
0!
0g
01
1*
0h
0j
0i
0'
0(
#690000
1!
1g
11
0*
1h
1j
1i
1'
1(
0e
1_
0U
1?
0f
1`
0V
1@
1d
1L
0<
#700000
0!
0g
01
1*
0h
0j
0i
0'
0(
#710000
1!
1g
11
0*
1h
1j
1i
1'
1(
1e
1M
0?
1f
1N
0@
1R
0d
1<
#720000
0%
0!
0S
0g
01
1*
0T
0h
0j
0i
0'
0(
#730000
1!
1g
11
0*
1h
1j
1i
1'
1(
1?
1@
1d
0L
1E
1A
0<
1F
0B
#740000
0!
0g
01
1*
0h
0j
0i
0'
0(
#750000
1!
1g
11
0*
1h
1j
1i
1'
1(
0M
1G
0C
0?
0N
1J
0D
0@
0R
0E
0A
1Y
0F
0^
1B
0d
1<
1F
0B
#760000
0!
0g
01
1*
0h
0j
0i
0'
0(
#770000
1!
1g
11
0*
1h
1j
1i
1'
1(
1?
1@
1d
1L
1K
0<
0L
0F
#780000
1%
0!
1S
0g
01
1*
1T
0h
0j
0i
0'
0(
#790000
1!
1g
11
0*
1h
1j
1i
1'
1(
0_
1Z
0G
0?
0`
1[
0J
0@
1a
0j
0i
0Y
0K
1F
0d
1L
1<
1j
0L
0F
1)
0'
0(
1'
#800000
0!
0g
01
1*
0h
#810000
1!
1g
11
0*
1h
0e
0Z
1?
0f
0[
1@
1i
0a
1d
1L
0<
1(
0)
#820000
0!
0g
01
1*
0h
0j
0i
0'
0(
#830000
1!
1g
11
0*
1h
1j
1i
1'
1(
1e
1M
0?
1f
1N
0@
1R
0d
1<
#840000
0%
0!
0S
0g
01
1*
0T
0h
0j
0i
0'
0(
#850000
1!
1g
11
0*
1h
1j
1i
1'
1(
1?
1@
1d
0L
1A
0<
1B
#860000
0!
0g
01
1*
0h
0j
0i
0'
0(
#870000
1!
1g
11
0*
1h
1j
1i
1'
1(
0M
1C
0?
0N
1D
0@
0R
0A
1^
0B
0d
1<
1B
#880000
0!
0g
01
1*
0h
0j
0i
0'
0(
#890000
1!
1g
11
0*
1h
1j
1i
1'
1(
1?
1@
1d
1L
0<
#900000
1%
0!
1S
0g
01
1*
1T
0h
0j
0i
0'
0(
#910000
1!
1g
11
0*
1h
1j
1i
1'
1(
1_
1M
0?
1`
1N
0@
1R
0d
1<
#920000
0!
0g
01
1*
0h
0j
0i
0'
0(
#930000
1!
1g
11
0*
1h
1j
1i
1'
1(
0e
1U
1?
0f
1V
1@
1a
1d
0L
1E
1A
0<
1F
0B
1)
#940000
0!
0g
01
1*
0h
0i
0(
#950000
1!
1g
11
0*
1h
1i
1(
1e
0M
1G
0C
0?
1f
0N
1J
0D
0@
0h
0R
0E
0A
1Y
0F
0^
1B
0d
1<
0i
1F
0B
0(
#960000
0%
0!
0S
0g
01
1*
0T
#970000
1!
1g
11
0*
1?
1@
1d
1L
1K
0<
0L
0F
#980000
0!
0g
01
1*
#990000
1!
1g
11
0*
0G
0?
0J
0@
0Y
0K
1F
0d
1L
1<
0L
0F
